Contaminación y muerte prenatal
…
datatable(RUIDO_CCAA)

Importación datos JSON:

## # A tbl_json: 60 x 6 tibble with a "JSON" attribute
##    ..JSON                  document.id COD      Nombre       T3_Unidad T3_Escala
##    <chr>                         <int> <chr>    <chr>        <chr>     <chr>    
##  1 "{\"COD\":\"IDB8311..."           1 IDB83113 Total Nacio… Defuncio… " "      
##  2 "{\"COD\":\"IDB8311..."           2 IDB83112 Total Nacio… Defuncio… " "      
##  3 "{\"COD\":\"IDB8311..."           3 IDB83111 Total Nacio… Defuncio… " "      
##  4 "{\"COD\":\"IDB8317..."           4 IDB83170 Andalucía, … Defuncio… " "      
##  5 "{\"COD\":\"IDB8316..."           5 IDB83169 Andalucía, … Defuncio… " "      
##  6 "{\"COD\":\"IDB8316..."           6 IDB83168 Andalucía, … Defuncio… " "      
##  7 "{\"COD\":\"IDB8316..."           7 IDB83167 Aragón, Mor… Defuncio… " "      
##  8 "{\"COD\":\"IDB8316..."           8 IDB83166 Aragón, Mor… Defuncio… " "      
##  9 "{\"COD\":\"IDB8316..."           9 IDB83165 Aragón, Mor… Defuncio… " "      
## 10 "{\"COD\":\"IDB8316..."          10 IDB83164 Asturias, P… Defuncio… " "      
## # ℹ 50 more rows
…
